System Native Font Finding • systemfonts
…
This function returns the path to the file holding the font, as well as the 0-based index of the font in the file.

It is also possible to get a data.frame of all available fonts:

system_fonts()
#> # A tibble: 819 × 9
#>    path                   index name  family style weight width italic monospace
#>    <chr>                  <int> <chr> <chr>  <chr> <ord>  <ord> <lgl>  <lgl>    
#>  1 /System/Library/Fonts…     2 Rock… Rockw… Bold  bold   norm… FALSE  FALSE    
#>  2 /Users/thomas/Library…     0 Open… Open … Ligh… normal norm… TRUE   FALSE    
#>  3 /Users/thomas/Library…     0 Open… Open … Semi… semib… semi… TRUE   FALSE    
#>  4 /System/Library/Fonts…     0 Note… Notew… Light normal norm… FALSE  FALSE    
#>  5 /System/Library/Fonts…     1 Deva… Devan… Bold  bold   norm… FALSE  FALSE    
#>  6 /System/Library/Fonts…     0 Kann… Kanna… Regu… normal norm… FALSE  FALSE    
#>  7 /System/Library/Fonts…     0 Verd… Verda… Bold  bold   norm… FALSE  FALSE    
#>  8 /System/Library/Fonts…     8 Aria… Arial… Light light  norm… FALSE  FALSE    
#>  9 /Users/thomas/Library…     0 Open… Open … Medi… medium norm… TRUE   FALSE    
#> 10 /System/Library/Fonts…    10 Appl… Apple… Thin  thin   norm… FALSE  FALSE    
#> # … with 809 more rows
…
