…
This function returns the path to the file holding the font, as well as
the 0-based index of the font in the file.

It is also possible to get a data.frame of all available fonts:

``` r
system_fonts()
#> # A tibble: 678 x 9
#>    path             index name     family    style weight width italic monospace
#>    <chr>            <int> <chr>    <chr>     <chr> <ord>  <ord> <lgl>  <lgl>    
#>  1 /System/Library…     2 Rockwel… Rockwell  Bold  bold   norm… FALSE  FALSE    
#>  2 /System/Library…     0 Notewor… Notewort… Light normal norm… FALSE  FALSE    
#>  3 /Users/thomas/L…     0 SourceS… Source S… Bold… bold   norm… TRUE   FALSE    
#>  4 /System/Library…     1 Devanag… Devanaga… Bold  bold   norm… FALSE  FALSE    
#>  5 /System/Library…     0 Kannada… Kannada … Regu… normal norm… FALSE  FALSE    
#>  6 /System/Library…     0 Verdana… Verdana   Bold  bold   norm… FALSE  FALSE    
#>  7 /System/Library…     8 ArialHe… Arial He… Light light  norm… FALSE  FALSE    
#>  8 /System/Library…    10 AppleSD… Apple SD… Thin  thin   norm… FALSE  FALSE    
#>  9 /System/Library…     0 DecoTyp… DecoType… Regu… normal norm… FALSE  FALSE    
#> 10 /System/Library…     0 Trebuch… Trebuche… Ital… normal norm… TRUE   FALSE    
#> # … with 668 more rows
```
…
