…
  The horizontal position of the next glyph after the string

- pen_y:

  The vertical position of the next glyph after the string

## Examples

``` r
string <- "This is a long string\nLook; It spans multiple lines\nand all"

# Shape with default settings
shape_string(string)
#> $shape
#> # A tibble: 59 × 7
#>    glyph index metric_id string_id x_offset y_offset x_midpoint
#>    <chr> <int>     <int>     <int>    <dbl>    <dbl>      <dbl>
#>  1 "T"      55         0         1        0        0        3.5
#>  2 "h"      75         0         1        7        0        4  
#>  3 "i"      76         0         1       15        0        1.5
#>  4 "s"      86         0         1       18        0        3  
#>  5 " "       3         0         1       24        0        2  
#>  6 "i"      76         0         1       28        0        1.5
#>  7 "s"      86         0         1       31        0        3  
#>  8 " "       3         0         1       37        0        2  
#>  9 "a"      68         0         1       41        0        3.5
#> 10 " "       3         0         1       48        0        2  
#> # ℹ 49 more rows
…
# Mix styles within the same string
string <- c(
  "This string will have\na ",
  "very large",
  " text style\nin the middle"
)

shape_string(string, id = c(1, 1, 1), size = c(12, 24, 12))
#> $shape
#> # A tibble: 59 × 7
#>    glyph index metric_id string_id x_offset y_offset x_midpoint
#>    <chr> <int>     <int>     <int>    <dbl>    <dbl>      <dbl>
#>  1 "T"      55         0         1        0        0        3.5
#>  2 "h"      75         0         1        7        0        4  
#>  3 "i"      76         0         1       15        0        1.5
#>  4 "s"      86         0         1       18        0        3  
#>  5 " "       3         0         1       24        0        2  
#>  6 "s"      86         0         1       28        0        3  
#>  7 "t"      87         0         1       34        0        2.5
#>  8 "r"      85         0         1       39        0        2.5
#>  9 "i"      76         0         1       44        0        1.5
#> 10 "n"      81         0         1       47        0        4  
#> # ℹ 49 more rows
…
